Folder_1/.1.swp
Folder_1/Sample_1/05-04-19.txt
modified.txt

Folder_1/1
Folder_1/2
Folder_1/3
Folder_1/Sample_2/3
Folder_1/Sample_2/45
Folder_1/Sample_2/56
file23
file45
folder2/1
folder2/2
folder2/3
folder2/4
folder2/5

Folder_1/Sample_1/1-4-19.txt

Folder_1/Sample_1/05-04-19.txt

Folder_1/Sample_1/05-04-19.txt

Folder_1/Sample_2/20-3-19.txt

try.txt

try.txt

try.txt

file456

modified.txt

Folder_1/Sample_1/05-04-19.txt
